%YAML 1.1
%TAG !u! tag:unity3d.com,2011:
--- !u!1001 &5693874948130401063
PrefabInstance:
  m_ObjectHideFlags: 0
  serializedVersion: 2
  m_Modification:
    m_TransformParent: {fileID: 0}
    m_Modifications:
    - target: {fileID: 2034534156491714713, guid: d95df5ef25f0e7b4589e698cdefd7136,
        type: 3}
      propertyPath: m_Mesh
      value: 
      objectReference: {fileID: 0}
    - target: {fileID: 2749440282570883581, guid: d95df5ef25f0e7b4589e698cdefd7136,
        type: 3}
      propertyPath: m_LocalPosition.x
      value: 0.3851211
      objectReference: {fileID: 0}
    - target: {fileID: 2749440282570883581, guid: d95df5ef25f0e7b4589e698cdefd7136,
        type: 3}
      propertyPath: m_LocalPosition.y
      value: -0.46917033
      objectReference: {fileID: 0}
    - target: {fileID: 2749440282570883581, guid: d95df5ef25f0e7b4589e698cdefd7136,
        type: 3}
      propertyPath: m_LocalPosition.z
      value: 11.184027
      objectReference: {fileID: 0}
    - target: {fileID: 2749440282570883581, guid: d95df5ef25f0e7b4589e698cdefd7136,
        type: 3}
      propertyPath: m_LocalRotation.x
      value: -0
      objectReference: {fileID: 0}
    - target: {fileID: 2749440282570883581, guid: d95df5ef25f0e7b4589e698cdefd7136,
        type: 3}
      propertyPath: m_LocalRotation.y
      value: -0
      objectReference: {fileID: 0}
    - target: {fileID: 2749440282570883581, guid: d95df5ef25f0e7b4589e698cdefd7136,
        type: 3}
      propertyPath: m_LocalRotation.z
      value: -0
      objectReference: {fileID: 0}
    - target: {fileID: 2749440282570883581, guid: d95df5ef25f0e7b4589e698cdefd7136,
        type: 3}
      propertyPath: m_LocalRotation.w
      value: 1
      objectReference: {fileID: 0}
    - target: {fileID: 2749440282570883581, guid: d95df5ef25f0e7b4589e698cdefd7136,
        type: 3}
      propertyPath: m_RootOrder
      value: 0
      objectReference: {fileID: 0}
    - target: {fileID: 2749440282570883581, guid: d95df5ef25f0e7b4589e698cdefd7136,
        type: 3}
      propertyPath: m_LocalEulerAnglesHint.x
      value: 0
      objectReference: {fileID: 0}
    - target: {fileID: 2749440282570883581, guid: d95df5ef25f0e7b4589e698cdefd7136,
        type: 3}
      propertyPath: m_LocalEulerAnglesHint.y
      value: 0
      objectReference: {fileID: 0}
    - target: {fileID: 2749440282570883581, guid: d95df5ef25f0e7b4589e698cdefd7136,
        type: 3}
      propertyPath: m_LocalEulerAnglesHint.z
      value: 0
      objectReference: {fileID: 0}
    - target: {fileID: 5158804374445236990, guid: d95df5ef25f0e7b4589e698cdefd7136,
        type: 3}
      propertyPath: m_Color.r
      value: 0.9056604
      objectReference: {fileID: 0}
    - target: {fileID: 5158804374445236990, guid: d95df5ef25f0e7b4589e698cdefd7136,
        type: 3}
      propertyPath: m_Color.g
      value: 0.17515129
      objectReference: {fileID: 0}
    - target: {fileID: 5158804374445236990, guid: d95df5ef25f0e7b4589e698cdefd7136,
        type: 3}
      propertyPath: m_Color.b
      value: 0.30957612
      objectReference: {fileID: 0}
    - target: {fileID: 5158804374445236990, guid: d95df5ef25f0e7b4589e698cdefd7136,
        type: 3}
      propertyPath: m_Shadows.m_Type
      value: 2
      objectReference: {fileID: 0}
    - target: {fileID: 5158804374453024446, guid: d95df5ef25f0e7b4589e698cdefd7136,
        type: 3}
      propertyPath: InitialModule.startColor.maxColor.g
      value: 0.06941971
      objectReference: {fileID: 0}
    - target: {fileID: 5158804374453024446, guid: d95df5ef25f0e7b4589e698cdefd7136,
        type: 3}
      propertyPath: InitialModule.startColor.maxColor.r
      value: 0.77254903
      objectReference: {fileID: 0}
    - target: {fileID: 5158804374453024446, guid: d95df5ef25f0e7b4589e698cdefd7136,
        type: 3}
      propertyPath: InitialModule.startColor.maxColor.b
      value: 0.06941971
      objectReference: {fileID: 0}
    - target: {fileID: 5158804374453024446, guid: d95df5ef25f0e7b4589e698cdefd7136,
        type: 3}
      propertyPath: InitialModule.startColor.maxColor.a
      value: 1
      objectReference: {fileID: 0}
    - target: {fileID: 5210954562646592953, guid: d95df5ef25f0e7b4589e698cdefd7136,
        type: 3}
      propertyPath: m_Name
      value: fire torch red-fire Variant
      objectReference: {fileID: 0}
    - target: {fileID: 7597013622334980733, guid: d95df5ef25f0e7b4589e698cdefd7136,
        type: 3}
      propertyPath: m_CastShadows
      value: 0
      objectReference: {fileID: 0}
    - target: {fileID: 7597013622334980733, guid: d95df5ef25f0e7b4589e698cdefd7136,
        type: 3}
      propertyPath: m_DynamicOccludee
      value: 0
      objectReference: {fileID: 0}
    - target: {fileID: 8096018724734592401, guid: d95df5ef25f0e7b4589e698cdefd7136,
        type: 3}
      propertyPath: m_CastShadows
      value: 0
      objectReference: {fileID: 0}
    - target: {fileID: 8096018724734592401, guid: d95df5ef25f0e7b4589e698cdefd7136,
        type: 3}
      propertyPath: m_DynamicOccludee
      value: 0
      objectReference: {fileID: 0}
    - target: {fileID: 8307959841896936077, guid: d95df5ef25f0e7b4589e698cdefd7136,
        type: 3}
      propertyPath: m_Mesh
      value: 
      objectReference: {fileID: 0}
    m_RemovedComponents: []
  m_SourcePrefab: {fileID: 100100000, guid: d95df5ef25f0e7b4589e698cdefd7136, type: 3}
